module gitlab.com/merakilab9/meradia

go 1.19

require (
	github.com/astaxie/beego v1.12.3
	github.com/aws/aws-sdk-go-v2 v1.19.0
	github.com/aws/aws-sdk-go-v2/service/s3 v1.37.0
	github.com/caarlos0/env/v6 v6.10.1
	github.com/gin-contrib/pprof v1.4.0
	github.com/gin-gonic/gin v1.9.1
	github.com/go-gormigrate/gormigrate/v2 v2.1.0
	github.com/google/uuid v1.3.0
	github.com/joho/godotenv v1.5.1
	gitlab.com/merakilab9/meracore v0.0.4
	go.mongodb.org/mongo-driver v1.12.0
	gorm.io/gorm v1.25.2
)

require (
	github.com/aws/aws-sdk-go-v2/aws/protocol/eventstream v1.4.10 // indirect
	github.com/aws/aws-sdk-go-v2/internal/configsources v1.1.35 // indirect
	github.com/aws/aws-sdk-go-v2/internal/endpoints/v2 v2.4.29 // indirect
	github.com/aws/aws-sdk-go-v2/internal/v4a v1.0.27 // indirect
	github.com/aws/aws-sdk-go-v2/service/internal/accept-encoding v1.9.11 // indirect
	github.com/aws/aws-sdk-go-v2/service/internal/checksum v1.1.30 // indirect
	github.com/aws/aws-sdk-go-v2/service/internal/presigned-url v1.9.29 // indirect
	github.com/aws/aws-sdk-go-v2/service/internal/s3shared v1.14.4 // indirect
	github.com/aws/smithy-go v1.13.5 // indirect
	github.com/bytedance/sonic v1.9.1 // indirect
	github.com/chenzhuoyu/base64x v0.0.0-20221115062448-fe3a3abad311 // indirect
	github.com/gabriel-vasile/mimetype v1.4.2 // indirect
	github.com/gin-contrib/sse v0.1.0 // indirect
	github.com/go-errors/errors v1.4.2 // indirect
	github.com/go-playground/locales v0.14.1 // indirect
	github.com/go-playground/universal-translator v0.18.1 // indirect
	github.com/go-playground/validator/v10 v10.14.1 // indirect
	github.com/goccy/go-json v0.10.2 // indirect
	github.com/golang/snappy v0.0.1 // indirect
	github.com/jackc/pgpassfile v1.0.0 // indirect
	github.com/jackc/pgservicefile v0.0.0-20221227161230-091c0ba34f0a // indirect
	github.com/jackc/pgx/v5 v5.3.1 // indirect
	github.com/jinzhu/inflection v1.0.0 // indirect
	github.com/jinzhu/now v1.1.5 // indirect
	github.com/json-iterator/go v1.1.12 // indirect
	github.com/klauspost/compress v1.13.6 // indirect
	github.com/klauspost/cpuid/v2 v2.2.4 // indirect
	github.com/leodido/go-urn v1.2.4 // indirect
	github.com/mattn/go-isatty v0.0.19 // indirect
	github.com/mattn/go-sqlite3 v2.0.3+incompatible // indirect
	github.com/modern-go/concurrent v0.0.0-20180306012644-bacd9c7ef1dd // indirect
	github.com/modern-go/reflect2 v1.0.2 // indirect
	github.com/montanaflynn/stats v0.0.0-20171201202039-1bf9dbcd8cbe // indirect
	github.com/pelletier/go-toml/v2 v2.0.8 // indirect
	github.com/shiena/ansicolor v0.0.0-20151119151921-a422bbe96644 // indirect
	github.com/sirupsen/logrus v1.9.3 // indirect
	github.com/twitchyliquid64/golang-asm v0.15.1 // indirect
	github.com/ugorji/go/codec v1.2.11 // indirect
	github.com/xdg-go/pbkdf2 v1.0.0 // indirect
	github.com/xdg-go/scram v1.1.2 // indirect
	github.com/xdg-go/stringprep v1.0.4 // indirect
	github.com/youmark/pkcs8 v0.0.0-20181117223130-1be2e3e5546d // indirect
	golang.org/x/arch v0.3.0 // indirect
	golang.org/x/crypto v0.9.0 // indirect
	golang.org/x/net v0.10.0 // indirect
	golang.org/x/sync v0.1.0 // indirect
	golang.org/x/sys v0.8.0 // indirect
	golang.org/x/text v0.9.0 // indirect
	google.golang.org/protobuf v1.30.0 // indirect
	gopkg.in/yaml.v3 v3.0.1 // indirect
	gorm.io/driver/postgres v1.5.2 // indirect
	gorm.io/driver/sqlite v1.5.2 // indirect
)
